$date
   Wed Oct 30 16:10:54 2019
$end
$version
  2019.1
$end
$timescale
  1ps
$end
$scope module sim_regs_dac_ad5672 $end
$var wire 8 # rxData_s [7:0] $end
$var wire 1 $ rxDataValid_s $end
$var wire 8 % txData_s [7:0] $end
$var wire 1 & txDataValid_s $end
$var wire 1 ' txDataReady_s $end
$var wire 32 ( regAddr_s [31:0] $end
$var wire 32 ) regWrData_s [31:0] $end
$var wire 32 * regRdData_s [31:0] $end
$var wire 1 + regReq_s $end
$var wire 1 , regOp_s $end
$var wire 1 - regAck_s $end
$var wire 1 ! clk_s $end
$var wire 1 " usrRst_s $end
$var wire 1 . sck_s $end
$var wire 1 / cs_s $end
$var wire 1 0 mosi_s $end
$scope module inst_cmd_interp $end
$var wire 1 ! usrClk $end
$var wire 1 " usrRst $end
$var wire 8 # rxData [7:0] $end
$var wire 1 $ rxDataValid $end
$var wire 8 % txData [7:0] $end
$var wire 1 & txDataValid $end
$var wire 1 ' txDataReady $end
$var wire 32 ( regAddr [31:0] $end
$var wire 32 ) regWrData [31:0] $end
$var wire 32 * regRdData [31:0] $end
$var wire 1 + regReq $end
$var wire 1 , regOp $end
$var wire 1 - regAck $end
$scope task comb $end
$upscope $end
$upscope $end
$scope module inst_dactop $end
$var wire 1 ! clk_i $end
$var wire 1 . sck_o $end
$var wire 1 / cs_o $end
$var wire 1 0 mosi_o $end
$var wire 1 - done_o $end
$var wire 1 + we_i $end
$var wire 1 , op_i $end
$var wire 32 ( write_addr_i [31:0] $end
$var wire 32 ) write_data_i [31:0] $end
$var wire 32 ( read_addr_i [31:0] $end
$var wire 32 * read_data_o [31:0] $end
$var wire 1 1 regAck_s $end
$var wire 1 2 regReq_s $end
$var wire 1 3 regOp_s $end
$var wire 32 4 regAddr_s [31:0] $end
$var wire 32 5 regWrData_s [31:0] $end
$var wire 32 6 regRdData_s [31:0] $end
$var wire 1 7 cs_s $end
$var wire 1 8 send_s $end
$var wire 1 9 done_s $end
$scope module inst_DAC_spi $end
$var wire 1 ! CLK $end
$var wire 1 . SCK $end
$var wire 1 / CS $end
$var wire 1 0 MOSI $end
$var wire 24 : VALUE [23:0] $end
$var wire 1 8 SEND $end
$var wire 1 ; SENDING $end
$var wire 24 < reg [23:0] $end
$scope task line__23 $end
$upscope $end
$upscope $end
$scope module inst_registers_r $end
$var wire 1 ! clk_i $end
$var wire 1 9 done_o $end
$var wire 1 + we_i $end
$var wire 1 , op_i $end
$var wire 32 ( write_addr_i [31:0] $end
$var wire 32 ) write_data_i [31:0] $end
$var wire 32 ( read_addr_i [31:0] $end
$var wire 32 * read_data_o [31:0] $end
$var wire 1 = rd_done_s $end
$var wire 1 > wr_done_s $end
$scope begin write_direction_g $end
$upscope $end
$upscope $end
$upscope $end
$upscope $end
$enddefinitions $end
#0
$dumpvars
0!
1"
b0 #
0$
b0 %
0&
0'
b0 (
b0 )
bx *
0+
0,
x-
0.
x/
x0
x1
x2
x3
bx 4
bx 5
bx 6
x7
08
x9
bx :
0;
bx <
x=
x>
$end
#5000
1!
bz *
z-
z9
0=
0>
#10000
0!
0"
#15000
1!
#20000
0!
b1110111 #
1$
1'
#25000
1!
1,
#30000
0!
b0 #
#35000
1!
#40000
0!
#45000
1!
#50000
0!
#55000
1!
#60000
0!
b10001 #
#65000
1!
b10001 (
#70000
0!
b0 #
#75000
1!
0-
09
#80000
0!
b10101010 #
#85000
1!
b101010100000000000000000 )
#90000
0!
#95000
1!
b101010101010101000000000 )
#100000
0!
#105000
1!
b101010101010101010101010 )
#110000
0!
#115000
1!
1+
#120000
0!
#125000
1!
1=
#130000
0!
#135000
1!
1-
19
b101010101010101010101010 :
#140000
0!
#145000
1!
0+
#150000
0!
#155000
1!
0=
#160000
0!
#165000
1!
0-
09
#170000
0!
#175000
1!
#180000
0!
#185000
1!
#190000
0!
#195000
1!
#200000
0!
#205000
1!
#210000
0!
b1110111 #
#215000
1!
#220000
0!
b0 #
#225000
1!
#230000
0!
#235000
1!
#240000
0!
#245000
1!
#250000
0!
b10000 #
#255000
1!
b10000 (
18
#260000
0!
b0 #
#265000
1!
1.
0/
10
1;
b101010101010101010101010 <
#270000
0!
b10011001 #
0.
#275000
1!
b100110011010101010101010 )
1.
00
b10101010101010101010100 <
#280000
0!
0.
#285000
1!
b100110011001100110101010 )
1.
10
b101010101010101010101000 <
#290000
0!
0.
#295000
1!
b100110011001100110011001 )
1.
00
b10101010101010101010000 <
#300000
0!
0.
#305000
1!
1+
1.
10
b101010101010101010100000 <
#310000
0!
0.
#315000
1!
1.
00
b10101010101010101000000 <
1=
#320000
0!
0.
#325000
1!
1-
1.
10
19
b101010101010101010101010 :
b101010101010101010000000 <
#330000
0!
0.
#335000
1!
0+
1.
00
b10101010101010100000000 <
#340000
0!
0.
#345000
1!
1.
10
b101010101010101000000000 <
0=
#350000
0!
0.
#355000
1!
0-
1.
00
09
b10101010101010000000000 <
#360000
0!
0.
#365000
1!
b1110111 #
1.
10
b101010101010100000000000 <
#370000
0!
0.
#375000
1!
b0 #
1.
00
b10101010101000000000000 <
#380000
0!
0.
#385000
1!
1.
10
b101010101010000000000000 <
#390000
0!
0.
#395000
1!
1.
00
b10101010100000000000000 <
#400000
0!
0.
#405000
1!
1.
10
b101010101000000000000000 <
#410000
0!
0.
#415000
1!
b0 (
1.
00
08
b10101010000000000000000 <
#420000
0!
0.
#425000
1!
b10011001 #
z-
1.
10
z9
b101010100000000000000000 <
#430000
0!
0.
#435000
1!
1.
00
b10101000000000000000000 <
#440000
0!
0.
#445000
1!
1.
10
b101010000000000000000000 <
#450000
0!
0.
#455000
1!
1.
00
b10100000000000000000000 <
#460000
0!
0.
#465000
1!
1+
1.
10
b101000000000000000000000 <
#470000
0!
0.
#475000
1!
1.
00
b10000000000000000000000 <
#480000
0!
0.
#485000
1!
1.
10
b100000000000000000000000 <
#490000
0!
0.
#495000
1!
1.
00
b0 <
#500000
0!
0.
#505000
1!
0.
1/
0;
#510000
0!
#515000
1!
#520000
0!
#525000
1!
#530000
0!
#535000
1!
#540000
0!
#545000
1!
#550000
0!
#555000
1!
#560000
0!
#565000
1!
#570000
0!
#575000
1!
#580000
0!
#585000
1!
#590000
0!
#595000
1!
#600000
0!
#605000
1!
#610000
0!
#615000
1!
#620000
0!
#625000
1!
#630000
0!
#635000
1!
#640000
0!
#645000
1!
#650000
0!
#655000
1!
#660000
0!
#665000
1!
#670000
0!
#675000
1!
#680000
0!
#685000
1!
#690000
0!
#695000
1!
#700000
0!
#705000
1!
#710000
0!
#715000
1!
#720000
0!
#725000
1!
#730000
0!
#735000
1!
#740000
0!
#745000
1!
#750000
0!
#755000
1!
#760000
0!
#765000
1!
#770000
0!
#775000
1!
#780000
0!
#785000
1!
#790000
0!
#795000
1!
#800000
0!
#805000
1!
#810000
0!
#815000
1!
#820000
0!
#825000
1!
#830000
0!
#835000
1!
#840000
0!
#845000
1!
#850000
0!
#855000
1!
#860000
0!
#865000
1!
#870000
0!
#875000
1!
#880000
0!
#885000
1!
#890000
0!
#895000
1!
#900000
0!
#905000
1!
#910000
0!
#915000
1!
#920000
0!
#925000
1!
#930000
0!
#935000
1!
#940000
0!
#945000
1!
#950000
0!
#955000
1!
#960000
0!
#965000
1!
#970000
0!
#975000
1!
#980000
0!
#985000
1!
#990000
0!
#995000
1!
