# compile vhdl design source files
vhdl xil_defaultlib  \
"sim_adc_frontend_func_impl.vhd" \
"../../../../../../src/UtilityPkg.vhd" \
"../../../../../../src/registers_rw.vhd" \
"../../../../../../src/adc_ctrl.vhd" \
"../../../../../../src/comparator.vhd" \
"../../../../../../src/single_deser.vhd" \
"../../../../../../src/deserializer_frontend.vhd" \
"../../../../../../src/therm2bin_bec.vhd" \
"../../../../../../src/adc_deser_top.vhd" \
"../../../../../../src/registers_ro.vhd" \
"../../../../../../src/cirular_buffer.vhd" \
"../../../../../../src/adc_frontend.vhd" \
"../../../../../../src/testbench/sim_adc_frontend.vhd" \

# Do not sort compile order
nosort
