$date
        2019-Sep-23 16:40:32
$end
$version
        Vivado v2019.1 (64-bit)
$end
$timescale
        1ps
$end
$scope module dut $end
$var reg 32 " regWrData_s [31:0] $end
$var reg 9 B regAddr_s [8:0] $end
$var reg 1 K _TRIGGER $end
$var reg 1 L _WINDOW $end
$var reg 1 M _GAP $end
$upscope $end
$enddefinitions $end
#0
$dumpvars
b0 "
b0 B
0K
1L
0M
$end
#512
1K
