$date
        2019-Sep-12 14:28:13
$end
$version
        Vivado v2019.1 (64-bit)
$end
$timescale
        1ps
$end
$scope module dut $end
$var reg 1 " Dout_OBUF $end
$var reg 1 # _TRIGGER $end
$var reg 1 $ _WINDOW $end
$var reg 1 % _GAP $end
$upscope $end
$enddefinitions $end
#0
$dumpvars
1"
0#
1$
0%
$end
#512
0"
1#
#513
1"
#515
0"
#516
1"
#518
0"
#519
1"
#521
0"
#522
1"
#523
0"
#524
1"
#526
0"
#527
1"
#528
0"
#529
1"
#530
0"
#531
1"
#532
0"
#533
1"
#534
0"
